{"comments":[],"workout_items":[{"id":570411410,"workout_id":120748763,"name":"EMOM 20","info":"1 - 20 Bulgarian split squat\n2 - 10 Burprees\n3 - 10 Lateral Lunge (each side)\n4 - 10 Single Arm Row w rotation (each side)","result":"","is_circuit":true,"state":"missed","selected_exercises":[{"id":"1121163","name":"TRX Single Arm Row with Rotation"},{"id":"381719","name":"Lateral Lunge"}],"linked":false,"position":1,"assessment_id":null,"created_at":"2021-01-10T15:30:01.028Z","attachments":[],"exercise_id":null,"request_video":false},{"id":570412229,"workout_id":120748763,"name":"Cycle or Walk","info":"30 mins","result":"","is_circuit":false,"state":"missed","selected_exercises":[],"linked":false,"position":2,"assessment_id":null,"created_at":"2021-01-10T15:30:47.997Z","attachments":[],"exercise_id":null,"request_video":false},{"id":570381651,"workout_id":120747159,"name":"Run","info":"10-minute easy run, 2 x (5-minute tempo run @ 5k pace, 2-minute easy run), 10-minute easy run","result":"","is_circuit":false,"state":"missed","selected_exercises":[],"linked":false,"position":2,"assessment_id":null,"created_at":"2021-01-10T15:25:05.344Z","attachments":[],"exercise_id":11601,"request_video":false},{"id":570381652,"workout_id":120747159,"name":"Running Warm Up","info":"","result":"","is_circuit":false,"state":"missed","selected_exercises":[],"linked":false,"position":1,"assessment_id":null,"created_at":"2021-01-10T15:25:05.350Z","attachments":[],"exercise_id":2899661,"request_video":false},{"id":570411865,"workout_id":120748674,"name":"EMOM 20","info":"1 - 20 Air Squats\n2 - 10 Press Ups\n3 - 20 Lunges (each side)\n4 - 10 TRX Row","result":"Done","is_circuit":true,"state":"completed","selected_exercises":[],"linked":false,"position":1,"assessment_id":null,"created_at":"2021-01-10T15:30:32.126Z","attachments":[],"exercise_id":null,"request_video":false},{"id":570411866,"workout_id":120748674,"name":"Cycle or Walk","info":"30 mins","result":"Done","is_circuit":false,"state":"completed","selected_exercises":[],"linked":false,"position":2,"assessment_id":null,"created_at":"2021-01-10T15:30:32.128Z","attachments":[],"exercise_id":null,"request_video":false},{"id":570381649,"workout_id":120747158,"name":"Running Warm Up","info":"","result":"Done","is_circuit":false,"state":"completed","selected_exercises":[],"linked":false,"position":1,"assessment_id":null,"created_at":"2021-01-10T15:25:05.285Z","attachments":[],"exercise_id":2899661,"request_video":false},{"id":570381650,"workout_id":120747158,"name":"Run","info":"30 mins @ 60-70%\nConversational pace - log how far you get","result":"4.9km 2 or 3 walks, sore feet from about 4km and first outinf for the RCR tee","is_circuit":false,"state":"completed","selected_exercises":[],"linked":false,"position":2,"assessment_id":null,"created_at":"2021-01-10T15:25:05.291Z","attachments":[],"exercise_id":11601,"request_video":false}],"workouts":[{"id":120748763,"due":"2021-01-15","short_description":"<p class='name-and-info'>A) EMOM 20<br/>B) Cycle or Walk<br/></p>","created_at":"2021-01-10T15:28:03.052Z","updated_at":"2021-01-15T23:05:33.395Z","title":"","state":"missed","rest_day":false,"rest_day_instructions":"","warmup":null,"warmup_selected_exercises":[],"cooldown_selected_exercises":[],"cooldown":null,"position":null,"order":1,"uuid":"f518e0ec-979b-4401-b5b8-9d64dd859aa6","program_name":null,"hidden":false,"client_id":413684,"comment_ids":[],"note_id":null,"program_id":null,"workout_item_ids":[570411410,570412229]},{"id":120747159,"due":"2021-01-14","short_description":"<p><b><u>Tempo Run</u></b></p><p class='name-and-info'>A) Running Warm Up<br/>B) Run<br/></p>","created_at":"2021-01-10T15:25:05.335Z","updated_at":"2021-01-14T23:05:25.023Z","title":"Tempo Run","state":"missed","rest_day":false,"rest_day_instructions":"","warmup":null,"warmup_selected_exercises":[],"cooldown_selected_exercises":[],"cooldown":null,"position":null,"order":1,"uuid":"22dbcb34-a461-41ba-808c-af818fd33213","program_name":null,"hidden":false,"client_id":413684,"comment_ids":[],"note_id":null,"program_id":null,"workout_item_ids":[570381651,570381652]},{"id":120751333,"due":"2021-01-13","short_description":"<p class='rest-day-title'><b><u>Rest Day</u></b></p>","created_at":"2021-01-10T15:30:57.189Z","updated_at":"2021-01-12T23:23:52.275Z","title":"","state":"completed","rest_day":true,"rest_day_instructions":"","warmup":null,"warmup_selected_exercises":[],"cooldown_selected_exercises":[],"cooldown":null,"position":null,"order":1,"uuid":"3d9b7d37-d992-4bd3-bb84-1176c06e1700","program_name":null,"hidden":false,"client_id":413684,"comment_ids":[],"note_id":null,"program_id":null,"workout_item_ids":[]},{"id":120748674,"due":"2021-01-12","short_description":"<p class='name-and-info'>A) EMOM 20<br/>B) Cycle or Walk<br/></p>","created_at":"2021-01-10T15:27:59.327Z","updated_at":"2021-01-13T12:29:27.081Z","title":"","state":"completed","rest_day":false,"rest_day_instructions":"","warmup":null,"warmup_selected_exercises":[],"cooldown_selected_exercises":[],"cooldown":null,"position":null,"order":1,"uuid":"f6dfd3e2-335a-45ec-89f2-e2c12fbf7aa6","program_name":null,"hidden":false,"client_id":413684,"comment_ids":[],"note_id":null,"program_id":null,"workout_item_ids":[570411865,570411866]},{"id":120747158,"due":"2021-01-11","short_description":"<p><b><u>Steady Run</u></b></p><p class='name-and-info'>A) Running Warm Up<br/>B) Run<br/></p>","created_at":"2021-01-10T15:25:05.278Z","updated_at":"2021-01-11T14:06:31.755Z","title":"Steady Run","state":"completed","rest_day":false,"rest_day_instructions":"","warmup":null,"warmup_selected_exercises":[],"cooldown_selected_exercises":[],"cooldown":null,"position":null,"order":1,"uuid":"2105a603-7d11-4bda-b07f-ff14cdbbd51e","program_name":null,"hidden":false,"client_id":413684,"comment_ids":[],"note_id":null,"program_id":null,"workout_item_ids":[570381649,570381650]}],"meta":{"page":1,"total_pages":62,"per_page":5,"total_count":309}}